// Jest Snapshot v1, https://goo.gl/fbAQLP

exports[`should match the snapshot with proper data 1`] = `
<section
  className="hero"
>
  <div
    className="hero-body"
  >
    <div
      className="container profileTicker"
    >
      <Component
        profiles={
          Array [
            Object {
              "name": "arbitrary name",
              "orcid": "https://orcid.org/arbitrary-orcid",
            },
            Object {
              "name": "arbitrary name",
              "orcid": "https://orcid.org/arbitrary-orcid",
            },
            Object {
              "name": "arbitrary name",
              "orcid": "https://orcid.org/arbitrary-orcid",
            },
            Object {
              "name": "arbitrary name",
              "orcid": "https://orcid.org/arbitrary-orcid",
            },
            Object {
              "name": "arbitrary name",
              "orcid": "https://orcid.org/arbitrary-orcid",
            },
          ]
        }
      />
    </div>
  </div>
</section>
`;
